{
	"MotorApplication": [{
		"Requesttype": "POST",
		"RequestURL": "/api/user/validateotp",
		"KeyDescription": "ValidateOTP",
		"Payloads": [
		{
   "username": "<emailid>",
   "password": "Welcome@123",
   "code": "<mobileotp>"
}
		]
	}]
}